<svg xmlns="http://www.w3.org/2000/svg" xmlns:xlink="http://www.w3.org/1999/xlink" width="39" height="44" version="1.1" style=""><rect id="backgroundrect" width="100%" height="100%" x="0" y="0" fill="none" stroke="none"/>
    <!-- Generator: Sketch 47.1 (45422) - http://www.bohemiancoding.com/sketch -->
    <title>play</title>
    <desc>Created with Sketch.</desc>
    <defs/>
    
<g class="currentLayer" style=""><title>Layer 1</title><g id="05.04.00-Example-MultipleSongs" stroke="none" stroke-width="1" fill="#bb5562" fill-rule="evenodd" class="selected" fill-opacity="1">
        <g id="HD_05.04.00-Example-MultipleSongs" fill="#bb5562" stroke="none" stroke-opacity="1" fill-opacity="1">
            <g id="Body" stroke="none" stroke-opacity="1" fill="#bb5562" fill-opacity="1">
                <g id="Content" stroke="none" stroke-opacity="1" fill="#bb5562" fill-opacity="1">
                    <g id="Example" stroke="none" stroke-opacity="1" fill="#bb5562" fill-opacity="1">
                        <g id="Group" stroke="none" stroke-opacity="1" fill="#bb5562" fill-opacity="1">
                            <g id="Player-1" stroke="none" stroke-opacity="1" fill="#bb5562" fill-opacity="1">
                                <g id="Content" stroke="none" stroke-opacity="1" fill="#bb5562" fill-opacity="1">
                                    <g id="plays" stroke="none" stroke-opacity="1" fill="#bb5562" fill-opacity="1">
                                        <polygon id="play" points="0,0 0,44 39.00994873046875,22 " stroke="none" stroke-opacity="1" fill="#bb5562" fill-opacity="1"/>
                                    </g>
                                </g>
                            </g>
                        </g>
                    </g>
                </g>
            </g>
        </g>
    </g></g></svg>