<?xml version="1.0" encoding="UTF-8"?>
<!DOCTYPE svg PUBLIC "-//W3C//DTD SVG 1.1//EN" "http://www.w3.org/Graphics/SVG/1.1/DTD/svg11.dtd">
<!-- Creator: CorelDRAW 2018 (64-Bit) -->
<svg xmlns="http://www.w3.org/2000/svg" xml:space="preserve" width="1.35065in" height="1.47803in" version="1.1" style="shape-rendering:geometricPrecision; text-rendering:geometricPrecision; image-rendering:optimizeQuality; fill-rule:evenodd; clip-rule:evenodd"
viewBox="0 0 97.65 106.85"
 xmlns:xlink="http://www.w3.org/1999/xlink">
 <defs>
  <style type="text/css">
   <![CDATA[
    .fil0 {fill:#BC5462}
   ]]>
  </style>
 </defs>
 <g id="Layer_x0020_1">
  <metadata id="CorelCorpID_0Corel-Layer"/>
  <path class="fil0" d="M-0 22.07l0 63.38c0,2.83 0.46,5.97 1.02,8.38 0.57,2.45 1.56,4.81 2.93,6.71 1.53,2.12 2.77,3.22 5.06,4.58 1.34,0.8 5.66,1.99 7.75,1.69 5.45,-0.78 6.18,-1.04 11.03,-3.44 3.48,-1.72 17.12,-9.75 21.41,-12.33l15.29 -8.8c1.12,-0.61 1.91,-1.14 3.05,-1.77l12.22 -7.06c2.08,-1.13 3.97,-2.37 6.11,-3.53 4.03,-2.19 7.49,-5.26 9.79,-9.25 4.27,-7.41 1.13,-15.47 -4.53,-20.03 -2.54,-2.05 -2.66,-2.18 -5.68,-3.96 -2.12,-1.25 -4.04,-2.27 -6.12,-3.52 -4.09,-2.46 -8.08,-4.6 -12.23,-7.04l-36.66 -21.18c-1.13,-0.63 -1.94,-1.17 -3.04,-1.77 -8.08,-4.37 -18.16,-4.9 -23.67,3.4 -2.55,3.85 -3.72,9.27 -3.72,15.56z"/>
 </g>
</svg>
