<?xml version="1.0" standalone="no"?>
<!DOCTYPE svg PUBLIC "-//W3C//DTD SVG 20010904//EN"
 "http://www.w3.org/TR/2001/REC-SVG-20010904/DTD/svg10.dtd">
<svg version="1.0" xmlns="http://www.w3.org/2000/svg"
 width="225.000000pt" height="225.000000pt" viewBox="0 0 225.000000 225.000000"
 preserveAspectRatio="xMidYMid meet">
<metadata>
Created by potrace 1.16, written by Peter Selinger 2001-2019
</metadata>
<g transform="translate(0.000000,225.000000) scale(0.100000,-0.100000)"
fill="#000000" stroke="none">
<path d="M982 2239 c-608 -79 -1043 -632 -973 -1238 31 -261 140 -487 323
-670 307 -307 753 -408 1168 -265 l75 26 155 -45 c85 -24 156 -44 157 -43 1 1
-3 64 -9 139 l-10 138 69 72 c147 154 237 321 285 530 28 120 29 343 4 462
-33 153 -85 279 -167 405 -57 86 -226 255 -317 314 -220 145 -500 209 -760
175z m636 -260 c128 -58 251 -165 331 -288 43 -67 95 -185 106 -241 6 -31 2
-27 -33 32 -151 253 -270 379 -469 498 -40 24 -73 44 -73 46 0 6 81 -21 138
-47z m-34 -113 c59 -25 159 -100 211 -158 50 -58 111 -172 121 -228 6 -31 0
-26 -52 49 -79 114 -190 230 -291 303 -45 33 -83 62 -83 63 0 5 50 -10 94 -29z
m-342 -187 c168 -36 316 -154 393 -314 178 -372 -96 -805 -510 -805 -365 0
-634 342 -550 699 47 197 218 368 417 417 67 16 182 17 250 3z m-792 -1200
c95 -96 159 -144 280 -213 56 -32 60 -36 30 -30 -120 23 -244 96 -355 208 -89
89 -133 155 -181 271 -46 111 -33 107 47 -15 55 -82 116 -158 179 -221z m-49
224 c88 -117 179 -209 282 -283 42 -29 75 -56 72 -58 -2 -2 -27 4 -54 13 -148
49 -306 216 -366 384 -8 23 -13 41 -11 41 2 0 37 -44 77 -97z"/>
<path d="M1070 1233 c-92 -47 -87 -180 7 -220 102 -42 202 58 160 160 -28 65
-104 93 -167 60z"/>
</g>
</svg>
